<?xml version="1.0" encoding="UTF-8"?>
<svg id="Layer_2" data-name="Layer 2" xmlns="http://www.w3.org/2000/svg" xmlns:xlink="http://www.w3.org/1999/xlink" viewBox="0 0 149.24 149.3">
  <defs>
    <style>
      .cls-1 {
        fill: url(#linear-gradient);
      }

      .cls-1, .cls-2 {
        stroke-width: 0px;
      }

      .cls-2 {
        fill: #fff;
      }
    </style>
    <linearGradient id="linear-gradient" x1="-780.1" y1="329.97" x2="-729.9" y2="329.97" gradientTransform="translate(1009.96 -2065.51) rotate(-90) scale(2.83 -2.83)" gradientUnits="userSpaceOnUse">
      <stop offset=".11" stop-color="#3ea6d2"/>
      <stop offset=".68" stop-color="#1fae5e"/>
    </linearGradient>
  </defs>
  <g id="svg1">
    <g>
      <circle class="cls-2" cx="74.8" cy="74.54" r="62.06"/>
      <g id="rect3">
        <path class="cls-1" d="M74.58,145.8c-1.52,0-3.05-.05-4.57-.15-19.6-1.25-37.97-10.69-50.41-25.89-5.51-6.73-9.56-14.04-12.38-22.32-2.32-6.82-3.46-13.23-3.69-20.79-.5-17.04,4.9-33.17,15.62-46.63,2.27-2.85,7.95-8.53,10.84-10.84,9.9-7.92,21.67-13.08,34.03-14.9,3.5-.52,7.06-.78,10.58-.78,25.16.03,47.89,12.85,60.88,34.29,8.31,13.72,11.74,30.13,9.65,46.22-1.59,12.27-6.7,24.47-14.39,34.35-3.4,4.37-8.04,9.01-12.42,12.42-12.44,9.68-27.98,15.02-43.75,15.02,0,0,0,0,0,0ZM79.17,116.91c.25-.02.48-.04.69-.07,19.25-2.37,34.46-17.54,36.97-36.87.3-2.31.35-7.71.08-10.14-.98-9-4.82-17.23-10.64-23.71.06.09.21.35.21.35.37.61.79,1.33,1.13,2.18.36.88.75,1.94.92,3.13.28,1.93.28,4-.01,5.98-.17,1.2-.56,2.24-.91,3.11-.35.85-.76,1.58-1.13,2.19-.3.5-.65,1.09-1.17,1.65-.28.31-.67.72-1.18,1.11.33.1.66.21.99.32l2.39.83-.04,2.53c-.04,2.26-.08,4.82-.7,7.44-.76,3.67-2.14,7-4.12,9.9-3.21,4.52-8,7.81-13.18,9.07-1.72.41-3.54.62-5.41.62-1.61,0-3.25-.15-4.9-.45v20.84ZM39.69,50.72c-1.06,1.57-2.01,3.23-2.86,4.96-2.09,4.25-3.32,8.1-4,12.49-.43,2.77-.52,8.33-.19,11.22.76,6.51,3.17,13.24,6.63,18.46,6.83,10.31,17.49,17.14,29.37,18.86v-20.63c-1.64.29-3.24.44-4.82.44-1.87,0-3.69-.21-5.4-.62-5.2-1.26-9.99-4.55-13.16-9.02-2.02-2.96-3.4-6.29-4.16-9.96-.62-2.61-.66-5.18-.7-7.44l-.04-2.53,2.39-.83c.37-.13.73-.24,1.08-.35-.49-.38-.87-.79-1.14-1.08-.51-.55-.86-1.14-1.12-1.57-.41-.69-.84-1.41-1.18-2.27-.35-.86-.73-1.91-.9-3.11-.29-1.98-.29-4.04-.01-5.97.05-.37.13-.73.21-1.07ZM71.51,73.5c.92.97,1.74,2,2.44,3.06.71-1.08,1.53-2.1,2.45-3.08-.82.12-1.66.18-2.5.18h0c-.45,0-.89-.02-1.34-.05-.35-.03-.7-.06-1.05-.11ZM90.45,62.01c-.52,1.46-1.24,2.84-2.15,4.15,2.03-.66,4-1.04,5.94-1.16.97-.04,2-.09,3.08-.09.11,0,.22,0,.33,0-.11-.17-.21-.36-.3-.55-.22.11-.45.21-.7.29-.42.13-.85.2-1.28.2-.74,0-1.46-.2-2.09-.58-.92-.57-1.57-1.45-1.83-2.45-.07.02-.14.04-.22.06-.26.07-.52.11-.77.13ZM50.58,64.91c1.07,0,2.11.05,3.02.09,1.93.12,3.87.49,5.86,1.12-.89-1.28-1.61-2.68-2.13-4.13-.2-.03-.4-.07-.6-.12-.05-.01-.11-.03-.16-.05-.26,1.01-.92,1.89-1.83,2.45-.62.38-1.34.58-2.08.58-.43,0-.86-.07-1.28-.2-.25-.08-.49-.18-.71-.29-.09.19-.18.37-.3.54.07,0,.14,0,.21,0ZM73.29,56.61c.18.02.39.03.57.03.23,0,.44-.02.64-.04.04,0,.08,0,.12-.01,0-.13.01-.25.01-.37,0-.13,0-.27-.02-.41-.03,0-.06,0-.09,0-.2-.02-.41-.03-.61-.03h0c-.19,0-.41.01-.61.03-.13.01-.27.03-.4.05,0,.12,0,.24,0,.35,0,.12,0,.25.02.38.12.01.25.03.37.04ZM52.62,45.22c.67.01,1.11.15,1.44.26,1.24.44,2.17,1.5,2.5,2.75.04-.01.08-.03.13-.04.44-.12.78-.16,1.13-.16h.03c.12,0,.24,0,.35.02.89-1.74,2.08-3.34,3.57-4.77,3.26-3.13,7.55-4.87,12.1-4.88,2.73,0,5.41.63,7.8,1.81,3.51,1.74,6.25,4.49,7.94,7.87.16-.03.34-.04.54-.05h.18c.37.02.71.07,1.05.18.03,0,.05.02.08.02.33-1.26,1.27-2.31,2.49-2.75.32-.12.77-.26,1.37-.27h.24s.13.01.13.01c.36.03.72.1,1.07.22.15.05.29.11.43.17.38-1.21,1.3-2.22,2.48-2.66.25-.09.78-.29,1.5-.3h.3s.13.02.13.02c.25.02.5.07.76.13.39.1.74.24,1.06.4-5.14-4.72-11.47-8.2-18.52-9.94-3.73-.92-5.62-1.13-10.11-1.13-4.59,0-6.53.23-10.42,1.2-3,.75-5.09,1.54-8.3,3.12-3.31,1.63-6.35,3.64-9.06,5.99l1.38.51c1.18.43,2.1,1.44,2.48,2.66.13-.06.27-.12.42-.17.42-.15.89-.24,1.36-.24Z"/>
        <path class="cls-2" d="M74.62,7s.04,0,.06,0h0c23.48.03,45.44,12.15,57.82,32.6,7.95,13.13,11.17,28.55,9.18,43.96-1.52,11.73-6.33,23.2-13.68,32.65-3.23,4.15-7.65,8.57-11.81,11.81-11.93,9.29-26.55,14.28-41.6,14.28-1.45,0-2.9-.05-4.35-.14-18.62-1.19-36.11-10.17-47.93-24.61-5.26-6.43-9.08-13.32-11.78-21.23-2.21-6.49-3.29-12.56-3.5-19.77-.48-16.18,4.67-31.56,14.86-44.34,2.1-2.63,7.61-8.15,10.29-10.29,9.35-7.49,20.68-12.45,32.36-14.17,3.37-.5,6.74-.74,10.08-.74M72.14,120.52v-29.06c-.78.4-1.7.62-2.48.83-1.88.46-3.86.73-5.83.73-1.54,0-3.09-.16-4.58-.52-4.47-1.09-8.47-3.9-11.12-7.64-1.78-2.62-2.97-5.6-3.6-8.7-.53-2.21-.58-4.48-.62-6.73,2.36-.82,4.55-1.02,6.67-1.02.96,0,1.92.04,2.86.08,3.45.21,6.77,1.42,9.88,3.07,3.41,1.95,6.54,4.64,8.42,8.13.93,1.82,1.63,3.76,2.16,5.72.02.08.03.16.04.24.01-.08.03-.16.05-.24.53-1.96,1.23-3.9,2.16-5.72,1.88-3.49,5.01-6.19,8.42-8.13,3.11-1.65,6.44-2.86,9.88-3.07.95-.04,1.9-.08,2.86-.08,2.12,0,4.31.2,6.67,1.02-.04,2.26-.08,4.53-.62,6.73-.63,3.1-1.82,6.08-3.6,8.7-2.65,3.74-6.65,6.55-11.12,7.64-1.5.36-3.04.52-4.58.52-1.98,0-3.95-.27-5.83-.73-.81-.21-1.77-.44-2.56-.87v29.13c1.74-.02,3.42-.09,4.61-.24h0c20.88-2.57,37.29-18.93,40.02-39.9.34-2.57.38-8.28.09-10.97-2.06-18.99-16.09-34.99-34.68-39.58-4.02-.99-6.16-1.23-10.94-1.23h-.02c-4.85,0-7.09.26-11.26,1.31-3.22.81-5.57,1.69-8.99,3.37-9.07,4.45-16.36,11.74-20.81,20.81-2.24,4.57-3.58,8.76-4.32,13.5-.48,3.08-.58,8.96-.2,12.16.81,7.02,3.45,14.35,7.19,19.99,7.55,11.41,19.57,18.92,32.81,20.53.82.1,1.86.16,2.98.2M73.91,41.9c2.11,0,4.24.47,6.2,1.45,4.2,2.08,7.02,5.98,7.74,10.67.16,1.04.16,3,0,4.04-.37,2.41-1.26,4.55-2.71,6.5-.63.85-2.04,2.24-2.9,2.86-2.49,1.8-5.39,2.75-8.34,2.75-.36,0-.71-.01-1.07-.04-3.82-.3-7.4-2.15-9.81-5.09-2.31-2.81-3.49-6.52-3.2-10.03.3-3.62,1.76-6.71,4.36-9.21,2.65-2.55,6.15-3.89,9.69-3.9.01,0,.02,0,.04,0M70.14,51.01c.49-.09.97-.16,1.43-.22.81-.11,1.89-.15,2.35-.16h0c.45,0,1.54.05,2.35.16.34.05.7.1,1.07.16-.07-.31-.15-.62-.23-.92-.27-.95-.64-2.04-.97-2.81-.32-.75-.73-1.45-.96-1.8-.32-.03-.69-.05-1.37-.05-.01,0-.03,0-.04,0h0c-.76,0-1.15.01-1.5.06-.23.36-.62,1.05-.93,1.78-.33.77-.69,1.86-.95,2.82-.09.33-.17.66-.24.99M84.03,53.03c-.03-.11-.06-.22-.1-.33-.55-1.65-1.35-2.93-2.64-4.22-1.2-1.19-2.49-2.02-4.01-2.55h0c.03.07.05.12.08.19.3.66.8,1.76,1.1,2.67.3.89.49,1.74.68,2.54.69.17,1.41.36,2.2.6.93.28,2.01.8,2.67,1.1,0,0,0,0,.01,0M63.42,53.2c.12-.05.25-.11.4-.18.66-.3,1.76-.8,2.67-1.1.64-.22,1.24-.37,1.83-.51,0-.01,0-.03,0-.05.18-.81.37-1.67.67-2.57.3-.91.79-2.02,1.08-2.68.03-.06.04-.1.07-.16h0c-3.11,1.14-5.56,3.62-6.59,6.77-.05.15-.09.31-.13.47M73.86,60.14s.04,0,.06,0c.31,0,.65-.03.97-.06.9-.1,1.8-.26,2.69-.44.04,0,.08-.02.12-.03.15-.81.28-1.62.37-2.43.03-.32.05-.66.05-.97,0-.31-.02-.65-.05-.97-.09-.84-.23-1.67-.38-2.49-.04,0-.08-.01-.11-.02-.89-.17-1.79-.32-2.7-.41-.32-.03-.66-.05-.97-.05h0c-.31,0-.65.02-.97.05-.9.09-1.8.25-2.7.41-.15.03-.31.06-.46.09-.14.81-.27,1.62-.35,2.43-.03.32-.05.66-.04.97,0,.31.03.65.06.97.09.82.23,1.63.39,2.44.14.02.27.05.4.08.9.16,1.8.31,2.7.39.3.03.61.04.9.04M79.49,53.13c.04.25.08.5.11.73.11.81.15,1.89.15,2.35h0c0,.46-.05,1.54-.15,2.35-.03.21-.06.43-.09.66.2-.05.4-.11.6-.16.95-.28,2.04-.66,2.8-1,.58-.26,1.13-.56,1.52-.8.08-.73.08-1.47,0-2.22-.39-.23-.94-.53-1.51-.78-.77-.33-1.86-.7-2.81-.97-.2-.06-.41-.11-.61-.16,0,0,0,0,0,0h0s0,0,0,0M68,53.22c-.09.02-.18.04-.27.07-.95.27-2.04.64-2.81.97-.77.33-1.5.75-1.84.98,0,0,0,0-.01.01-.06.68-.05,1.35,0,2,.35.23,1.07.64,1.84.96.77.33,1.86.69,2.82.95.11.03.21.05.32.08-.04-.23-.07-.45-.1-.66-.11-.81-.16-1.89-.17-2.34h0c0-.46.03-1.54.13-2.35.03-.22.06-.44.09-.66,0,0,0,0,0,0h0s0,0,0,0M77.37,66.3c3.27-1.18,5.67-3.84,6.64-7.01h0c-.65.3-1.73.84-2.65,1.12-.79.24-1.5.44-2.19.61,0,.02,0,.03-.01.05-.19.81-.41,1.64-.69,2.57-.28.93-.8,2-1.1,2.66M63.51,59.33c1.04,3.32,3.56,5.92,6.76,7.02,0-.01-.01-.03-.02-.04-.3-.65-.84-1.73-1.13-2.66-.28-.93-.51-1.76-.71-2.56,0-.01,0-.03,0-.04-.61-.14-1.24-.29-1.91-.51-.91-.3-2.02-.79-2.68-1.08-.12-.05-.22-.09-.32-.13,0,0,0,0,0,0h0s0,0,0,0M73.94,61.76c-.45,0-1.54-.03-2.35-.13-.44-.05-.9-.12-1.36-.2.08.32.16.65.25.97.28.95.66,2.04,1,2.8.29.66.64,1.27.88,1.65.34.05.58.07.97.07.19,0,.4,0,.68-.01.49,0,.9-.05,1.27-.1.24-.39.56-.98.83-1.6.33-.77.7-1.86.97-2.81.09-.32.17-.65.25-.98h0c-.36.06-.72.12-1.06.17-.81.11-1.89.16-2.35.17h0M46.82,46.17c.13,0,.21.04.33.09h0c.2.07.37.35.38.6.04.76-.66,1.28-.93,1.96-.36.9-.69,1.83-.92,2.79-.14.6-.23,1.22-.28,1.84-.07.88-.07,1.76,0,2.64.05.62.14,1.24.28,1.84.23.96.53,1.91.92,2.79.3.69.98,1.21.93,1.96-.01.25-.2.48-.38.6-.1.06-.22.09-.33.09-.1,0-.2-.02-.3-.05-.48-.16-.89-.59-1.27-1-.28-.31-.51-.69-.73-1.07-.32-.54-.64-1.09-.89-1.69-.3-.73-.57-1.5-.69-2.3-.24-1.63-.25-3.34-.01-4.97.12-.81.4-1.58.7-2.31.24-.6.56-1.15.89-1.69.23-.37.45-.76.73-1.07.38-.41.77-.88,1.26-1,.12-.03.22-.04.29-.04,0,0,0,0,0,0h0M101.19,46.17h0s0,0,0,0c.08,0,.17.01.29.04.5.12.89.6,1.27,1,.28.31.51.69.73,1.07.32.54.64,1.09.89,1.69.3.74.58,1.5.7,2.31.24,1.63.23,3.34-.01,4.97-.12.8-.39,1.57-.69,2.3-.24.6-.56,1.15-.89,1.69-.23.37-.45.76-.73,1.07-.38.41-.78.84-1.26,1-.09.03-.2.05-.3.05-.12,0-.23-.03-.33-.09-.18-.12-.37-.35-.39-.6-.04-.76.63-1.28.93-1.96.39-.88.69-1.83.92-2.79.14-.6.23-1.22.28-1.84.07-.88.07-1.76,0-2.64-.05-.62-.14-1.24-.28-1.84-.23-.96-.56-1.89-.92-2.79-.27-.68-.97-1.21-.93-1.96.01-.26.19-.53.39-.61h0c.12-.04.2-.08.33-.08M52.63,48.72c.1,0,.18.03.27.07.15.05.28.26.29.44.03.56-.5.94-.71,1.44-.27.66-.52,1.34-.69,2.05-.11.44-.18.89-.21,1.35-.05.64-.05,1.29,0,1.94.04.46.1.91.21,1.35.17.71.4,1.4.69,2.05.23.5.74.89.71,1.44-.01.19-.15.36-.29.44-.08.05-.16.07-.25.07-.08,0-.15-.01-.23-.04-.37-.12-.67-.44-.96-.73-.22-.23-.39-.51-.56-.78-.25-.4-.49-.8-.67-1.25-.22-.54-.43-1.1-.52-1.69-.18-1.2-.19-2.45,0-3.65.09-.59.3-1.16.53-1.7.19-.44.43-.85.67-1.24.17-.28.34-.56.56-.78.29-.3.59-.61.96-.74.08-.03.14-.04.2-.04,0,0,0,0,0,0h0M95.38,48.72h0s0,0,0,0c.06,0,.12.01.2.04.37.13.67.44.96.74.22.23.39.51.56.78.25.4.49.8.67,1.24.23.54.44,1.1.53,1.7.18,1.2.17,2.45-.01,3.65-.09.59-.3,1.15-.52,1.69-.18.44-.43.85-.67,1.25-.17.28-.34.56-.56.78-.29.3-.59.62-.96.73-.07.02-.15.04-.23.04-.09,0-.18-.02-.25-.07-.14-.09-.28-.26-.29-.44-.03-.56.48-.94.71-1.44.29-.65.52-1.34.7-2.05.11-.44.18-.89.21-1.35.05-.64.05-1.29,0-1.94-.04-.46-.1-.91-.21-1.35-.17-.71-.42-1.39-.7-2.05-.21-.5-.74-.89-.71-1.44.01-.19.14-.39.29-.44.09-.03.17-.07.27-.07M57.82,51.53c.07,0,.12.02.18.04.1.03.19.14.19.25.02.31-.33.52-.47.8-.18.37-.34.74-.46,1.13-.07.24-.12.49-.14.75-.03.36-.03.72,0,1.07.02.25.07.5.14.75.11.39.26.77.46,1.13.15.28.49.49.47.8,0,.1-.1.2-.19.24-.05.03-.11.04-.17.04-.05,0-.1,0-.15-.02-.24-.06-.44-.24-.63-.41-.14-.12-.25-.28-.37-.43-.16-.22-.32-.44-.44-.69-.15-.3-.28-.61-.34-.93-.12-.66-.12-1.36,0-2.02.06-.33.2-.64.35-.94.12-.24.28-.47.44-.69.11-.15.22-.31.37-.43.19-.17.39-.34.63-.41.05-.01.09-.02.13-.02,0,0,0,0,0,0h0M90.19,51.53h0s.08,0,.14.02c.24.07.44.24.63.41.14.12.25.28.37.43.16.22.32.44.44.69.15.3.29.61.35.94.12.66.11,1.36,0,2.02-.06.33-.2.64-.34.93-.12.24-.28.47-.44.69-.11.15-.22.31-.37.43-.19.17-.39.34-.63.41-.05.01-.1.02-.15.02-.06,0-.12-.01-.17-.04-.09-.05-.18-.14-.19-.24-.02-.31.32-.52.47-.8.19-.36.34-.74.46-1.13.07-.24.12-.49.14-.75.03-.36.03-.72,0-1.07-.02-.25-.07-.5-.14-.75-.11-.39-.28-.77-.46-1.13-.14-.28-.49-.49-.47-.8,0-.1.09-.22.19-.25.06-.02.11-.04.18-.04M74.62,0c-3.7,0-7.43.27-11.1.81-12.98,1.91-25.33,7.32-35.71,15.63-3.1,2.48-8.95,8.34-11.39,11.39C5.17,41.95-.5,58.87.03,76.75c.23,7.93,1.43,14.66,3.87,21.82,2.96,8.69,7.21,16.35,12.99,23.41,13.05,15.95,32.33,25.85,52.9,27.16,1.59.1,3.2.15,4.79.15,16.55,0,32.85-5.6,45.9-15.76,4.59-3.58,9.46-8.45,13.03-13.03,8.07-10.36,13.43-23.16,15.1-36.05,2.18-16.87-1.41-34.09-10.13-48.48-6.67-11.02-16.12-20.16-27.31-26.44C100.07,3.31,87.45.02,74.68,0h-.07ZM90.75,43.29c-1.95-2.59-4.5-4.72-7.53-6.22-.9-.45-1.84-.83-2.79-1.14,1.09.16,2.19.39,3.61.74,4.16,1.03,8.04,2.71,11.54,4.93-.03.04-.07.07-.1.11-.03,0-.05,0-.08,0h-.13c-1.26.02-2.21.37-2.52.48-.72.26-1.39.63-1.99,1.09h0ZM53.7,41.8c1.24-.8,2.54-1.53,3.88-2.19,2.97-1.46,4.89-2.18,7.61-2.87.04,0,.07-.02.11-.03-2.19.98-4.21,2.33-5.98,4.03-.8.77-1.53,1.59-2.19,2.45-.57-.43-1.21-.77-1.9-1.01-.21-.07-.76-.28-1.54-.39h0ZM109.93,64.1c.32-.57.64-1.2.93-1.91.14-.33.28-.71.42-1.12,1.07,2.91,1.8,5.98,2.15,9.15.23,2.14.19,7.27-.07,9.31-2.17,16.65-14.58,29.93-30.69,33.31v-12.84c.47.02.93.03,1.4.03,2.15,0,4.24-.24,6.22-.72,6.01-1.46,11.54-5.25,15.19-10.4l.04-.05.04-.06c2.23-3.28,3.79-7.02,4.64-11.11.7-2.97.75-5.83.78-8.14l.08-5.05-1.13-.4h0ZM37.21,64.36c.11-.41.23-.82.36-1.22.16.32.32.63.49.93l-.85.3h0ZM65.14,112.46c-9.27-2.38-17.46-8.23-22.96-16.53-3.12-4.71-5.39-11.04-6.07-16.94-.3-2.56-.21-7.84.17-10.28.15-1,.34-1.97.56-2.92l.06,3.75c.04,2.31.08,5.17.78,8.14.85,4.1,2.41,7.84,4.64,11.11l.04.06.04.05c3.65,5.15,9.18,8.94,15.18,10.4,2,.48,4.09.72,6.24.72.44,0,.88,0,1.32-.03v12.46h0Z"/>
      </g>
    </g>
  </g>
</svg>